%YAML 1.1
%TAG !u! tag:unity3d.com,2011:
--- !u!74 &7400000
AnimationClip:
  m_ObjectHideFlags: 0
  m_CorrespondingSourceObject: {fileID: 0}
  m_PrefabInternal: {fileID: 0}
  m_Name: Run
  serializedVersion: 6
  m_Legacy: 0
  m_Compressed: 0
  m_UseHighQualityCurve: 1
  m_RotationCurves: []
  m_CompressedRotationCurves: []
  m_EulerCurves: []
  m_PositionCurves: []
  m_ScaleCurves: []
  m_FloatCurves: []
  m_PPtrCurves:
  - curve:
    - time: 0
      value: {fileID: 21300000, guid: 6301745b309e8d647ad98b9ed4608072, type: 3}
    - time: 0.16666667
      value: {fileID: 21300000, guid: d1925aedab89633429c8da2bfdbbb40e, type: 3}
    - time: 0.33333334
      value: {fileID: 21300000, guid: 54c0b006c0e8ab145b6e460c592046b6, type: 3}
    - time: 0.5
      value: {fileID: 21300000, guid: fa42c9c16d861634c8b46311855bd97e, type: 3}
    - time: 0.6666667
      value: {fileID: 21300000, guid: 7ab27d9574f4e8e4baed01e87aabb16f, type: 3}
    - time: 0.8333333
      value: {fileID: 21300000, guid: bd3b59ba54ee4e34d9e6f456ff2ff236, type: 3}
    - time: 1
      value: {fileID: 21300000, guid: 8e089daac4ea52740bfcd141a0874207, type: 3}
    attribute: m_Sprite
    path: Sprite
    classID: 212
    script: {fileID: 0}
  m_SampleRate: 12
  m_WrapMode: 0
  m_Bounds:
    m_Center: {x: 0, y: 0, z: 0}
    m_Extent: {x: 0, y: 0, z: 0}
  m_ClipBindingConstant:
    genericBindings:
    - serializedVersion: 2
      path: 850496168
      attribute: 0
      script: {fileID: 0}
      typeID: 212
      customType: 23
      isPPtrCurve: 1
    pptrCurveMapping:
    - {fileID: 21300000, guid: 6301745b309e8d647ad98b9ed4608072, type: 3}
    - {fileID: 21300000, guid: d1925aedab89633429c8da2bfdbbb40e, type: 3}
    - {fileID: 21300000, guid: 54c0b006c0e8ab145b6e460c592046b6, type: 3}
    - {fileID: 21300000, guid: fa42c9c16d861634c8b46311855bd97e, type: 3}
    - {fileID: 21300000, guid: 7ab27d9574f4e8e4baed01e87aabb16f, type: 3}
    - {fileID: 21300000, guid: bd3b59ba54ee4e34d9e6f456ff2ff236, type: 3}
    - {fileID: 21300000, guid: 8e089daac4ea52740bfcd141a0874207, type: 3}
  m_AnimationClipSettings:
    serializedVersion: 2
    m_AdditiveReferencePoseClip: {fileID: 0}
    m_AdditiveReferencePoseTime: 0
    m_StartTime: 0
    m_StopTime: 1.0833334
    m_OrientationOffsetY: 0
    m_Level: 0
    m_CycleOffset: 0
    m_HasAdditiveReferencePose: 0
    m_LoopTime: 1
    m_LoopBlend: 0
    m_LoopBlendOrientation: 0
    m_LoopBlendPositionY: 0
    m_LoopBlendPositionXZ: 0
    m_KeepOriginalOrientation: 0
    m_KeepOriginalPositionY: 1
    m_KeepOriginalPositionXZ: 0
    m_HeightFromFeet: 0
    m_Mirror: 0
  m_EditorCurves: []
  m_EulerEditorCurves: []
  m_HasGenericRootTransform: 0
  m_HasMotionFloatCurves: 0
  m_GenerateMotionCurves: 0
  m_Events: []
